{
  "public": {
    "appName": "BLITZ",
    "version": "2.5.3.2 (DEV)",
    "environment": "DEVELOPMENT"
  },
  "private": {
    "google": {
      "clientId": "540876162888-8nobps62die4nqsa24pgda0dges9npgj.apps.googleusercontent.com",
      "secret": "Oi8uuhAvoi2Zo-Zha2iwj-V9"
    },
    "facebook": {
      "appId": "1436913826352789",
      "secret": "6088749409462e0cb56c7a9a5d250ee9"
    },
    "gaoRest": {
      "baseUrl": "http://dev.gacore.ws/Server/SupportOurSaleIntegrationService.svc/REST/",
      "endpoints": {
        "participantRegistration": "RetrieveOnlineParticipant",
        "sms": "SendSms",
        "email": "SendEmail",
        "setupBlitzStoreCampaign": "SetupBlitzStoreCampaign"
      },
      "credentials": {
        "clientId": "GameTime.v1",
        "clientSecret": "c08765e4-2df8-4e7d-8be2-c3c1446b591f"
      }
    }
  },
  "sample": "/config/development/settings.json"
}